<?xml version="1.0" encoding="UTF-8" standalone="no"?>
<svg width="13px" height="13px" viewBox="0 0 13 13" version="1.1" xmlns="http://www.w3.org/2000/svg" xmlns:xlink="http://www.w3.org/1999/xlink">
    <!-- Generator: Sketch 49.3 (51167) - http://www.bohemiancoding.com/sketch -->
    <title>Q_OFF@2x</title>
    <desc>Created with Sketch.</desc>
    <defs></defs>
    <g id="Page-1" stroke="none" stroke-width="1" fill="none" fill-rule="evenodd" opacity="0.298740672">
        <g id="Desktop-Copy-22" transform="translate(-282.000000, -28.000000)" fill="#FFFFFF" fill-rule="nonzero">
            <g id="Group" transform="translate(245.137308, 28.500000)">
                <path d="M43.4648438,9.590625 C45.560937,9.590625 47.2601562,7.89140571 47.2601562,5.7953125 C47.2601562,3.69921929 45.560937,2 43.4648438,2 C41.3687505,2 39.6695312,3.69921929 39.6695312,5.7953125 C39.6695312,7.89140571 41.3687505,9.590625 43.4648438,9.590625 Z M43.4648438,11.590625 C40.264181,11.590625 37.6695312,8.99597521 37.6695312,5.7953125 C37.6695312,2.59464979 40.264181,0 43.4648438,0 C46.6655065,0 49.2601562,2.59464979 49.2601562,5.7953125 C49.2601562,8.99597521 46.6655065,11.590625 43.4648438,11.590625 Z" id="Q_OFF"></path>
            </g>
        </g>
    </g>
</svg>